<?xml version="1.0" encoding="utf-8"?>
<!-- Generator: Adobe Illustrator 22.1.0, SVG Export Plug-In . SVG Version: 6.00 Build 0)  -->
<svg version="1.1" id="Layer_1" xmlns="http://www.w3.org/2000/svg" xmlns:xlink="http://www.w3.org/1999/xlink" x="0px" y="0px"
	 viewBox="0 0 1024 1024" style="enable-background:new 0 0 1024 1024;" xml:space="preserve">
<style type="text/css">
	.st0{fill:#9ECFAA;}
	.st1{fill:#FFFFFF;}
</style>
<rect x="-10.8" y="-4.2" class="st0" width="1045.6" height="1040.2"/>
<g>
	<g>
		<g>
			<path class="st1" d="M481.1,406.1c0-108.5,77-124.8,122.9-124.8c66.7,0,120.9,54.3,120.9,120.9c0,66.7-54.2,120.9-120.9,120.9
				h-87.9v68.8h87.9c104.6,0,189.7-85.1,189.7-189.7s-85.1-189.7-189.7-189.7c-118.3,0-191.7,74.2-191.7,193.6v378.8
				c0,19,15.4,34.4,34.4,34.4c19,0,34.4-15.4,34.4-34.4V406.1z"/>
		</g>
	</g>
	<g>
		<path class="st1" d="M264.6,520h114.2v68.8H264.6c-19,0-34.4-15.4-34.4-34.4C230.2,535.4,245.6,520,264.6,520z"/>
	</g>
</g>
</svg>
